
Scrapper Excecuted on 2021-03-07 23:12:24.949649
Scrapper Excecuted on 2021-03-07 23:32:47.720728
Scrapper Excecuted on 2021-03-07 23:33:24.712986
Scrapper Excecuted on 2021-03-07 23:35:50.706583
Scrapper Excecuted on 2021-03-07 23:56:39.274550
Scrapper Excecuted on 2021-03-07 23:57:20.060087
Scrapper Excecuted on 2021-03-07 23:57:34.891008
Scrapper Excecuted on 2021-03-07 23:58:30.671363
Scrapper Excecuted on 2021-03-08 00:08:59.482384
Scrapper Excecuted on 2021-03-08 00:11:21.423013
Scrapper Excecuted on 2021-03-08 00:11:38.305098
Scrapper Excecuted on 2021-03-08 00:11:50.570503
Scrapper Excecuted on 2021-03-08 00:12:42.983132
Scrapper Excecuted on 2021-03-08 00:12:47.742669
Scrapper Excecuted on 2021-03-08 00:14:45.065765
Scrapper Excecuted on 2021-03-08 00:14:51.150154
Scrapper Excecuted on 2021-03-08 00:15:53.503118
Scrapper Excecuted on 2021-03-08 00:16:08.176335
Scrapper Excecuted on 2021-03-08 00:16:16.896936
Scrapper Excecuted on 2021-03-08 00:17:20.142724
Scrapper Excecuted on 2021-03-08 00:19:19.597885
Scrapper Excecuted on 2021-03-08 00:30:52.229097
Scrapper Excecuted on 2021-03-08 00:40:36.325621